%YAML 1.1
%TAG !u! tag:unity3d.com,2011:
--- !u!114 &11400000
MonoBehaviour:
  m_ObjectHideFlags: 0
  m_CorrespondingSourceObject: {fileID: 0}
  m_PrefabInstance: {fileID: 0}
  m_PrefabAsset: {fileID: 0}
  m_GameObject: {fileID: 0}
  m_Enabled: 1
  m_EditorHideFlags: 0
  m_Script: {fileID: 11500000, guid: bbb281ee3bf0b054c82ac2347e9e782c, type: 3}
  m_Name: Building
  m_EditorClassIdentifier: 
  m_GroupName: Building
  m_Data:
    m_SerializedData: []
  m_GUID: 4fb35fa3c2035094fa35b99c4f4dfb43
  m_SerializeEntries:
  - m_GUID: f2dca5fdac98a444b890e81f681492ae
    m_Address: TestBuilding
    m_ReadOnly: 0
    m_SerializedLabels: []
    m_MainAsset: {fileID: 0}
    m_TargetAsset: {fileID: 0}
  - m_GUID: 4b2b8c2296d00cb499abe4733b4219e7
    m_Address: ChunkB
    m_ReadOnly: 0
    m_SerializedLabels: []
    m_MainAsset: {fileID: 0}
    m_TargetAsset: {fileID: 0}
  - m_GUID: 8721f9d0470d6a844bd0705346e85bf7
    m_Address: ChunkC
    m_ReadOnly: 0
    m_SerializedLabels: []
    m_MainAsset: {fileID: 0}
    m_TargetAsset: {fileID: 0}
  - m_GUID: 0fd3245913be0924b8ad2e43ddb0fbce
    m_Address: ChunkD
    m_ReadOnly: 0
    m_SerializedLabels: []
    m_MainAsset: {fileID: 0}
    m_TargetAsset: {fileID: 0}
  - m_GUID: 030a279915366d5478bccf585f1824ef
    m_Address: ChunkA
    m_ReadOnly: 0
    m_SerializedLabels: []
    m_MainAsset: {fileID: 0}
    m_TargetAsset: {fileID: 0}
  - m_GUID: 44526d0841cc6fd47907a3e743d9178b
    m_Address: ChunkCenter
    m_ReadOnly: 0
    m_SerializedLabels: []
    m_MainAsset: {fileID: 0}
    m_TargetAsset: {fileID: 0}
  - m_GUID: cdb4e39b4bd072a4c8642e4a17f1c473
    m_Address: Island
    m_ReadOnly: 0
    m_SerializedLabels: []
    m_MainAsset: {fileID: 0}
    m_TargetAsset: {fileID: 0}
  - m_GUID: 41e5d11db320c0343a0ba7ad220d6d6c
    m_Address: Island2
    m_ReadOnly: 0
    m_SerializedLabels: []
    m_MainAsset: {fileID: 0}
    m_TargetAsset: {fileID: 0}
  m_ReadOnly: 0
  m_Settings: {fileID: 11400000, guid: ca4ea5a6d70b6274caf9576d12b217c9, type: 2}
  m_SchemaSet:
    m_Schemas:
    - {fileID: 11400000, guid: c36f3ecd08734b843a9056f75a1d445a, type: 2}
    - {fileID: 11400000, guid: b2abf3be2093e24438432fcad2c0f0d9, type: 2}
