%YAML 1.1
%TAG !u! tag:unity3d.com,2011:
--- !u!1045 &1
EditorBuildSettings:
  m_ObjectHideFlags: 0
  serializedVersion: 2
  m_Scenes:
  - enabled: 1
    path: Assets/Scenes/SplashScreen.unity
    guid: a196d87a0798ac04b8f2e06da1092868
  - enabled: 0
    path: Assets/Scenes/GameScreen.unity
    guid: 9148f5a8c09cba5499bb4451a7089b6d
  - enabled: 1
    path: Assets/Scenes/GameScreenDemo.unity
    guid: a06f3ce88707b25488697839ba8e985d
  m_configObjects:
    com.unity.addressableassets: {fileID: 11400000, guid: bc7d307a6a7a16741b0101ece302a660, type: 2}
